<?xml version="1.0" encoding="utf-8"?>
<!-- Generator: Adobe Illustrator 21.1.0, SVG Export Plug-In . SVG Version: 6.00 Build 0)  -->
<svg version="1.1" id="Слой_1" xmlns="http://www.w3.org/2000/svg" xmlns:xlink="http://www.w3.org/1999/xlink" x="0px" y="0px"
	 viewBox="0 0 22 22" style="enable-background:new 0 0 22 22;" xml:space="preserve">
<image style="overflow:visible;" width="22" height="22" xlink:href="data:image/png;base64,iVBORw0KGgoAAAANSUhEUgAAABYAAAAWCAYAAADEtGw7AAAACXBIWXMAAAsTAAALEwEAmpwYAAAA
AXNSR0IArs4c6QAAAARnQU1BAACxjwv8YQUAAAEKSURBVHgB7ZNBboJAFIb/eYU9LFl1egM3JnTJ
DdoTlKTpQXqCHqBp5AjtCeiuTdoYvcHsTNxo3ApvnCFqEMUIRFd+gfA/5s0X8sgAFWaTnlxM+6l9
ogOiKiVyUxOluRXzMvKDkTq4M3xOzO6n0huFn4+7TUE1UktRt/1yqpGiq5yOSDvJHXNJ5vwVgjwS
4q28qKE/NfPXulXCzvFUsR/8f9swm4QSIt8VM8Z+MEzQAsKZuIqv4guKnUbd9/GDOY5ekQVuK6se
wjheZ9VMnLkKDqeFZB8P4mZgpdB51GwUf+8jZBSZNK/pKKT4TVTzGdfLt1JbtPt5+/IdqUWgC/2X
Hlw9AGePZelZWQHp8Wv4BFmFeQAAAABJRU5ErkJggg==">
</image>
</svg>
