<?xml version="1.0" encoding="utf-8"?>
<!-- Generator: Adobe Illustrator 21.1.0, SVG Export Plug-In . SVG Version: 6.00 Build 0)  -->
<svg version="1.1" id="Слой_1" xmlns="http://www.w3.org/2000/svg" xmlns:xlink="http://www.w3.org/1999/xlink" x="0px" y="0px"
	 viewBox="0 0 13 11" style="enable-background:new 0 0 13 11;" xml:space="preserve">
<image style="overflow:visible;" width="13" height="11" xlink:href="data:image/png;base64,iVBORw0KGgoAAAANSUhEUgAAAA0AAAALCAYAAACksgdhAAAACXBIWXMAAAsTAAALEwEAmpwYAAAA
AXNSR0IArs4c6QAAAARnQU1BAACxjwv8YQUAAADxSURBVHgBnVG7DcIwEH3nIETJABTZgNABVUZg
A4yghxFgg9CDCBvABEBFKsQGpGAASoTA5mKSiISfxJN8ss/v3dnvgD9AJtaljRJOWPunzG2j2+c4
5FWG0B40c4pqLB63QuJirYw4QV26HD0jiKBowLwWzgWnEFNCruKArAOaXR/qNud99eVdCksEk3Us
EiGgecFmsWSBxDsovTfsp5SNXxA3I7LM4bgLUakRiNzPCr1BMPOynYj2+AatZNowTW6nC1xFLf5b
TkAjBH6aj+fUc3kObTahhcTiB9hV6kSOPdegdBfNiCwHWjuGHDmaIye4A9h1SCbDPfPDAAAAAElF
TkSuQmCC">
</image>
</svg>
